Twitteranalyse in R
…
l1<-lookup_users("spdde",token = tx)
spd_id<-l1$user_id

sowie Karl Lauterbach und Ralf Stegner.

l2<-lookup_users("karl_lauterbach",token = tx)
l3<-lookup_users("ralf_stegner",token = tx)

Follower

Social Media wird erst dadurch sozial, als das es ein soziales Netzwerk ist, welches Menschen verbindet. Diese Verbindungen finden entweder in bilataralen Beziehungen oder hierarchischen Beziehungen (Follower) wieder. Jeder Account hat Follower und folgt anderen Accounts (Friends).

get_followers("spdde",n = 100,token = tx)

## # A tibble: 100 x 1
##    user_id            
##    <chr>              
##  1 1585598432642834433
##  2 944783814          
##  3 1585582689100484610
##  4 1585583015400542209
##  5 1585577763393740801
##  6 1534872442799284225
##  7 1543219756056059906
##  8 1565263871920992257
##  9 1585561033632092167
## 10 1490014053552558088
## # ... with 90 more rows
…
